%YAML 1.1
%TAG !u! tag:unity3d.com,2011:
--- !u!21 &2100000
Material:
  serializedVersion: 8
  m_ObjectHideFlags: 0
  m_CorrespondingSourceObject: {fileID: 0}
  m_PrefabInstance: {fileID: 0}
  m_PrefabAsset: {fileID: 0}
  m_Name: cfxr smoke cloud x4 second color ab
  m_Shader: {fileID: 4800000, guid: e198026df304af84a85675be636192ea, type: 3}
  m_ValidKeywords:
  - _ALPHABLEND_ON
  - _CFXR_DISSOLVE
  - _CFXR_DITHERED_SHADOWS_ON
  - _CFXR_SECONDCOLOR_LERP
  - _FADING_ON
  m_InvalidKeywords:
  - _
  - _CFXR_OVERLAYBLEND_RGBA
  - _CFXR_OVERLAYTEX_OFF
  m_LightmapFlags: 0
  m_EnableInstancingVariants: 0
  m_DoubleSidedGI: 0
  m_CustomRenderQueue: 5000
  stringTagMap: {}
  disabledShaderPasses: []
  m_SavedProperties:
    serializedVersion: 3
    m_TexEnvs:
    - _BumpMap:
        m_Texture: {fileID: 0}
        m_Scale: {x: 1, y: 1}
        m_Offset: {x: 0, y: 0}
    - _DissolveTex:
        m_Texture: {fileID: 2800000, guid: 8d435dfcfea1eb64dba196af2f9490f4, type: 3}
        m_Scale: {x: 1, y: 1}
        m_Offset: {x: 0, y: 0}
    - _DistortTex:
        m_Texture: {fileID: 0}
        m_Scale: {x: 1, y: 1}
        m_Offset: {x: 0, y: 0}
    - _DitherCustom:
        m_Texture: {fileID: 0}
        m_Scale: {x: 1, y: 1}
        m_Offset: {x: 0, y: 0}
    - _MainTex:
        m_Texture: {fileID: 2800000, guid: 914231f4fc2a7194b9323d6e2cf86df0, type: 3}
        m_Scale: {x: 1, y: 1}
        m_Offset: {x: 0, y: 0}
    - _OverlayTex:
        m_Texture: {fileID: 0}
        m_Scale: {x: 1, y: 1}
        m_Offset: {x: 0, y: 0}
    - _SecondColorTex:
        m_Texture: {fileID: 2800000, guid: cbe9410b182e9cd4787d6f068c564ad7, type: 3}
        m_Scale: {x: 1, y: 1}
        m_Offset: {x: 0, y: 0}
    m_Ints: []
    m_Floats:
    - _BacklightTransmittance: 1
    - _BlendingType: 0
    - _BumpScale: 1
    - _CFXR_DITHERED_SHADOWS: 1
    - _CFXR_OVERLAYBLEND: 0
    - _CFXR_OVERLAYTEX: 0
    - _Cutoff: 0.1
    - _DebugDissolveTime: 0
    - _DirLightScreenAtten: 1
    - _DirectLightingRamp: 1
    - _DissolveSmooth: 0.1
    - _Distort: 0.1
    - _DstBlend: 10
    - _EdgeFadePow: 1
    - _FadeAlongU: 0
    - _HdrBoost: 0
    - _HdrMultiply: 2
    - _IndirectLightingMix: 0.5
    - _InvertDissolveTex: 0
    - _LightingWorldPosStrength: 0.2
    - _OVERLAYBLEND: 0
    - _OVERLAYTEX: 0
    - _SecondColorSmooth: 0.3
    - _ShadowStrength: 0.5
    - _SingleChannel: 0
    - _SoftParticlesFadeDistanceFar: 1
    - _SoftParticlesFadeDistanceNear: 0
    - _SrcBlend: 5
    - _UVDistortionAdd: 0
    - _UseAlphaClip: 0
    - _UseBackLighting: 0
    - _UseDissolve: 1
    - _UseEF: 0
    - _UseEmission: 0
    - _UseFB: 0
    - _UseFontColor: 0
    - _UseLighting: 0
    - _UseLightingWorldPosOffset: 0
    - _UseNormalMap: 0
    - _UseSP: 1
    - _UseSecondColor: 1
    - _UseUV2Distortion: 0
    - _UseUVDistortion: 0
    - _ZWrite: 0
    m_Colors:
    - _Color: {r: 2, g: 2, b: 2, a: 1}
    - _DistortScrolling: {r: 0, g: 0, b: 1, a: 1}
    - _OverlayTex_Scroll: {r: 0.1, g: 0.1, b: 1, a: 1}
    - _ShadowColor: {r: 0, g: 0, b: 0, a: 1}
    - _SoftParticlesFadeDistance: {r: 0, g: 1, b: 0, a: 0}
  m_BuildTextureStacks: []
